[gd_scene load_steps=6 format=2]

[ext_resource path="res://Rooms/Room1/Lamp.gd" type="Script" id=1]
[ext_resource path="res://Rooms/Room1/Assets/LampGrad.png" type="Texture" id=2]
[ext_resource path="res://Rooms/Room1/Assets/Lamp.png" type="Texture" id=3]

[sub_resource type="Animation" id=20]
length = 0.001
tracks/0/type = "value"
tracks/0/path = NodePath("Skeleton2D/Bone2D/Bone2D:position")
tracks/0/interp = 1
tracks/0/loop_wrap = true
tracks/0/imported = false
tracks/0/enabled = true
tracks/0/keys = {
"times": PoolRealArray( 0 ),
"transitions": PoolRealArray( 1 ),
"update": 0,
"values": [ Vector2( 112, -0.000404358 ) ]
}
tracks/1/type = "value"
tracks/1/path = NodePath("Skeleton2D/Bone2D/Bone2D:rotation_degrees")
tracks/1/interp = 1
tracks/1/loop_wrap = true
tracks/1/imported = false
tracks/1/enabled = true
tracks/1/keys = {
"times": PoolRealArray( 0 ),
"transitions": PoolRealArray( 1 ),
"update": 0,
"values": [ 0.0 ]
}
tracks/2/type = "value"
tracks/2/path = NodePath("Skeleton2D/Bone2D:position")
tracks/2/interp = 1
tracks/2/loop_wrap = true
tracks/2/imported = false
tracks/2/enabled = true
tracks/2/keys = {
"times": PoolRealArray( 0 ),
"transitions": PoolRealArray( 1 ),
"update": 0,
"values": [ Vector2( 16, 0 ) ]
}
tracks/3/type = "value"
tracks/3/path = NodePath("Skeleton2D/Bone2D:rotation_degrees")
tracks/3/interp = 1
tracks/3/loop_wrap = true
tracks/3/imported = false
tracks/3/enabled = true
tracks/3/keys = {
"times": PoolRealArray( 0 ),
"transitions": PoolRealArray( 1 ),
"update": 0,
"values": [ 90.0 ]
}

[sub_resource type="Animation" id=21]
resource_name = "oscillation"
length = 2.0
tracks/0/type = "value"
tracks/0/path = NodePath("Skeleton2D/Bone2D:rotation_degrees")
tracks/0/interp = 2
tracks/0/loop_wrap = true
tracks/0/imported = false
tracks/0/enabled = true
tracks/0/keys = {
"times": PoolRealArray( 0, 1, 2 ),
"transitions": PoolRealArray( 1, 1, 1 ),
"update": 0,
"values": [ 96.0, 84.2967, 96.0 ]
}
tracks/1/type = "value"
tracks/1/path = NodePath("Skeleton2D/Bone2D/Bone2D:rotation_degrees")
tracks/1/interp = 2
tracks/1/loop_wrap = true
tracks/1/imported = false
tracks/1/enabled = true
tracks/1/keys = {
"times": PoolRealArray( 0, 1, 2 ),
"transitions": PoolRealArray( 1, 1, 1 ),
"update": 0,
"values": [ 4.1, -4.12896, 4.1 ]
}

[node name="Lamp" type="Node2D"]
position = Vector2( 97, 0 )
script = ExtResource( 1 )

[node name="Polygon2D" type="Polygon2D" parent="."]
position = Vector2( 16.0138, 0.0737848 )
rotation = -1.55677e-05
offset = Vector2( -16.0138, -0.0634461 )
texture = ExtResource( 3 )
skeleton = NodePath("../Skeleton2D")
polygon = PoolVector2Array( 16, 111.687, 17.0625, 110.999, 17, 0.124063, 15, 0.0615625, 15.3125, 110.749, 13.875, 110.874, 7.125, 115.124, 2.9375, 118.749, 1.5, 121.624, 1.5625, 124.562, 11.4375, 124.374, 15.875, 126.999, 20.5, 124.312, 30.5625, 124.249, 30.5, 120.874, 26.5625, 116.124, 17.5, 110.937 )
uv = PoolVector2Array( 16, 111.687, 17.0625, 110.999, 17, 0.124063, 15, 0.0615625, 15.3125, 110.749, 13.875, 110.874, 7.125, 115.124, 2.9375, 118.749, 1.5, 121.624, 1.5625, 124.562, 11.4375, 124.374, 15.875, 126.999, 20.5, 124.312, 30.5625, 124.249, 30.5, 120.874, 26.5625, 116.124, 17.5, 110.937 )
polygons = [ PoolIntArray( 0, 1, 2, 3, 4, 5, 6, 7, 8, 9, 10, 11, 12, 13, 14, 15, 16 ), PoolIntArray( 3, 4, 0, 1, 2 ), PoolIntArray( 4, 5, 6, 7, 8, 9, 10, 11, 12, 13, 14, 15, 16, 1, 0 ) ]
bones = [ "Bone2D", PoolRealArray( 0.29, 0.58, 0.29, 0.29, 0.29, 0, 0, 0, 0, 0, 0, 0, 0, 0, 0, 0, 0.29 ), "Bone2D/Bone2D", PoolRealArray( 0.29, 0.29, 0, 0, 0.29, 0.29, 0.29, 0.29, 0.29, 0.29, 0.29, 0.29, 0.29, 0.29, 0.29, 0.29, 0.29 ) ]

[node name="Skeleton2D" type="Skeleton2D" parent="."]
__meta__ = {
"_edit_ik_": true
}

[node name="Bone2D" type="Bone2D" parent="Skeleton2D"]
position = Vector2( 16, 0 )
rotation = 1.5708
rest = Transform2D( -4.37114e-08, 1, -1, -4.37114e-08, 16, 0 )
__meta__ = {
"_edit_ik_": true
}

[node name="Bone2D" type="Bone2D" parent="Skeleton2D/Bone2D"]
position = Vector2( 112, -0.000404358 )
rest = Transform2D( 1, 0, 0, 1, 112, -7.62939e-06 )

[node name="Light2D" type="Light2D" parent="Skeleton2D/Bone2D/Bone2D"]
position = Vector2( 62, 0.0300721 )
rotation = -1.5708
scale = Vector2( 0.174028, 0.2 )
texture = ExtResource( 2 )
energy = 0.8

[node name="AnimationPlayer" type="AnimationPlayer" parent="."]
playback_speed = 0.3
method_call_mode = 1
anims/RESET = SubResource( 20 )
anims/oscillation = SubResource( 21 )

[connection signal="animation_finished" from="AnimationPlayer" to="." method="_on_AnimationPlayer_animation_finished"]
